{
  "settings": {
      "number_of_shards": 3,
      "number_of_replicas": 1,
      "analysis": {
          "analyzer": {
              "article": {
                  "tokenizer": "classic",
                  "filter": ["lowercase"]
              }
          }
      }
  },
  "mappings": {
      "articles": {
          "_all": {
              "enabled": false
          },
          "properties": {
              "type": {
                  "type": "keyword",
                  "index": "not_analyzed"
              },
              "title": {
                  "type": "text"
              },
              "author": {
                  "type": "text"
              },
              "date": {
                  "type": "date",
                  "format": "MM/dd/yyyy"
              },
              "departments": {
                  "type": "keyword"
              },
              "tags": {
                  "type": "text"
              },
              "abstract": {
                  "type": "text"
              },
              "text": {
                  "type": "text"
              },
              "imgalttext": {
                  "type": "text"
              },
              "filename": {
                  "type": "text"
              }
          }
      }
  }
}